{
  "scripts": {
    "__internal__": "snel dev",
    "bundle": "bundler bundle ./public/__index.html=index.html",
    "dev": "trex run __internal__",
    "watch": "trex run __internal__ --watch",
    "start": "snel serve",
    "build": "snel build"
  },
  "files": [
    "./src"
  ]
}